{
  "parent": "block/orientable",
  "textures": {
    "top": "jump:machines/generator/generator_top",
    "front": "jump:machines/generator/generator_front_on_1",
    "side": "jump:machines/generator/generator_side"
  }
}
